-------------------------------------------------------------------------------
Test set: com.luxoft.dnepr.courses.unit2.LuxoftUtilsTest
-------------------------------------------------------------------------------
Tests run: 5, Failures: 0, Errors: 0, Skipped: 0, Time elapsed: 0.015 sec
