-------------------------------------------------------------------------------
Test set: com.luxoft.dnepr.courses.unit1.LuxoftUtilsTest
-------------------------------------------------------------------------------
Tests run: 4, Failures: 0, Errors: 0, Skipped: 0, Time elapsed: 0 sec
